…
hoc_leaders <- readRDS(data_path) |>
  filter(party %in% c("Conservative", "Labour")) |>
  mutate(
    year = as.integer(format(date, "%Y")),
    speech_id = paste0("leader_", row_number()),
    party = factor(party, levels = c("Conservative", "Labour")),
    leader_period = paste(leader, election_period, sep = ": ")
  )

hoc_leaders |>
  count(party, leader, sort = TRUE)
```

    # A tibble: 21 × 3
       party        leader                n
       <fct>        <chr>             <int>
     1 Labour       Tony Blair          800
     2 Conservative David Cameron       600
     3 Conservative Margaret Thatcher   600
     4 Labour       Jeremy Corbyn       495
     5 Conservative John Major          425
     6 Conservative Boris Johnson       400
     7 Conservative Theresa May         400
     8 Labour       Keir Starmer        400
     9 Labour       Neil Kinnock        348
    10 Conservative Rishi Sunak         248
    # ℹ 11 more rows
…
