…
label_scores |>
  arrange(speech_id, desc(score)) |>
  group_by(speech_id) |>
  slice_head(n = 3) |>
  ungroup()
```

    # A tibble: 75 × 3
       speech_id label      score
       <chr>     <chr>      <dbl>
     1 hoc_3417  economy    0.143
     2 hoc_3417  health     0.143
     3 hoc_3417  security   0.143
     4 hoc_3471  economy    0.5  
     5 hoc_3471  procedural 0.5  
     6 hoc_3471  health     0    
     7 hoc_3610  security   1    
     8 hoc_3610  economy    0    
     9 hoc_3610  health     0    
    10 hoc_3650  economy    0.143
    # ℹ 65 more rows
…
predictions |>
  select(speech_id, party_group, agenda, predicted_label, predicted_score) |>
  arrange(desc(predicted_score))
```

    # A tibble: 25 × 5
       speech_id party_group  agenda                 predicted_label predicted_score
       <chr>     <fct>        <chr>                  <chr>                     <dbl>
     1 hoc_3610  Labour       Engagements [Oral Ans… security                      1
     2 hoc_3847  Labour       NHS and the Private S… health                        1
     3 hoc_3912  Labour       Counter-Terrorism Bill security                      1
     4 hoc_3996  Conservative Law Commission Bill [… procedural                    1
     5 hoc_4125  Labour       Regional Growth Fund … economy                       1
     6 hoc_4131  Conservative Engagements [Oral Ans… economy                       1
     7 hoc_4354  Conservative Greece                 housing                       1
     8 hoc_4374  Labour       Jeremy Pemberton [Ora… health                        1
     9 hoc_4690  Conservative Shopworkers: Protecti… security                      1
    10 hoc_4838  Conservative Antisocial Behaviour … security                      1
    # ℹ 15 more rows
…
