…
``` r
speech_counts <- hoc |>
  count(
    election_no,
    election_period,
    party_family,
    leader,
    name = "available_speeches"
  )

speech_counts
```

    # A tibble: 42 × 5
       election_no election_period            party_family leader available_speeches
             <int> <chr>                      <chr>        <chr>               <int>
     1          47 47th Parliament (1979-198… Conservative Marga…                200
     2          47 47th Parliament (1979-198… Labour       James…                147
     3          47 47th Parliament (1979-198… Labour       Micha…                 61
     4          48 48th Parliament (1983-198… Conservative Marga…                200
     5          48 48th Parliament (1983-198… Labour       Micha…                  9
     6          48 48th Parliament (1983-198… Labour       Neil …                100
     7          49 49th Parliament (1987-199… Conservative John …                200
     8          49 49th Parliament (1987-199… Conservative Marga…                200
     9          49 49th Parliament (1987-199… Labour       Neil …                200
    10          50 50th Parliament (1992-199… Conservative John …                200
    # ℹ 32 more rows
…
    # A tibble: 2 × 2
      party_family     n
      <chr>        <int>
    1 Labour        1977
    2 Conservative  1920

``` r
topic_docs |>
  count(leader, party_family, sort = TRUE)
```

    # A tibble: 21 × 3
       leader            party_family     n
       <chr>             <chr>        <int>
     1 Tony Blair        Labour         533
     2 Jeremy Corbyn     Labour         407
     3 David Cameron     Conservative   392
     4 Keir Starmer      Labour         267
     5 Theresa May       Conservative   255
     6 Neil Kinnock      Labour         187
     7 Boris Johnson     Conservative   183
     8 Margaret Thatcher Conservative   178
     9 John Major        Conservative   176
    10 William Hague     Conservative   166
    # ℹ 11 more rows
…
