…
It is also useful to inspect cases where UDPipe changed the surface form
of the token into a different lemma.

``` r
parsed_tokens |>
  filter(
    str_detect(token, "[A-Za-z]"),
    str_to_lower(token) != lemma
  ) |>
  distinct(token, lemma, upos) |>
  slice_head(n = 30)
```

    # A tibble: 30 × 3
       token     lemma    upos 
       <chr>     <chr>    <chr>
     1 agrees    agree    VERB 
     2 Lords     lord     NOUN 
     3 said      say      VERB 
     4 their     they     PRON 
     5 lordships lordship NOUN 
     6 left      leave    VERB 
     7 changes   change   NOUN 
     8 us        we       PRON 
     9 are       be       AUX  
    10 taken     take     VERB 
    # ℹ 20 more rows
…
Proper nouns are tagged as `PROPN`. In parliamentary speeches, these
often identify places, organisations, and named individuals.

``` r
proper_nouns <- parsed_tokens |>
  filter(upos == "PROPN")

proper_nouns |>
  count(lemma, sort = TRUE) |>
  slice_head(n = 30)
```

    # A tibble: 30 × 2
       lemma         n
       <chr>     <int>
     1 member      117
     2 minister    112
     3 bill         66
     4 house        50
     5 uk           47
     6 gentleman    42
     7 secretary    40
     8 london       39
     9 state        37
    10 mr.          33
    # ℹ 20 more rows
…
``` r
subjects_objects <- parsed_tokens |>
  filter(
    dep_rel %in% c("nsubj", "obj"),
    !is.na(clean_lemma)
  )

subjects_objects |>
  count(dep_rel, clean_lemma, sort = TRUE) |>
  group_by(dep_rel) |>
  slice_head(n = 15) |>
  ungroup()
```

    # A tibble: 30 × 3
       dep_rel clean_lemma     n
       <chr>   <chr>       <int>
     1 nsubj   government     79
     2 nsubj   people         50
     3 nsubj   one            44
     4 nsubj   bill           15
     5 nsubj   company        15
     6 nsubj   change         13
     7 nsubj   report         13
     8 nsubj   ministers      12
     9 nsubj   office         12
    10 nsubj   point          12
    # ℹ 20 more rows
…
bind_rows(
  parsed_tokens_english,
  parsed_tokens_dutch,
  parsed_tokens_german
) |>
  select(language, token, lemma, upos, dep_rel)
```

    # A tibble: 21 × 5
       language token      lemma      upos  dep_rel 
       <chr>    <chr>      <chr>      <chr> <chr>   
     1 English  The        the        DET   det     
     2 English  government government NOUN  nsubj   
     3 English  discusses  discuss    VERB  root    
     4 English  the        the        DET   det     
     5 English  budget     budget     NOUN  obj     
     6 English  today      today      NOUN  obl:tmod
     7 English  .          .          PUNCT punct   
     8 Dutch    De         de         DET   det     
     9 Dutch    regering   regering   NOUN  nsubj   
    10 Dutch    bespreekt  bespreken  VERB  root    
    # ℹ 11 more rows
…
