…
leader_counts
```

    # A tibble: 42 × 7
       election_no election_period             party      leader leader_period_start
             <int> <chr>                       <chr>      <chr>  <date>             
     1          47 47th Parliament (1979-1983) Conservat… Marga… 1979-05-03         
     2          47 47th Parliament (1979-1983) Labour     James… 1979-05-03         
     3          47 47th Parliament (1979-1983) Labour     Micha… 1980-11-10         
     4          48 48th Parliament (1983-1987) Conservat… Marga… 1983-06-09         
     5          48 48th Parliament (1983-1987) Labour     Micha… 1983-06-09         
     6          48 48th Parliament (1983-1987) Labour     Neil … 1983-10-02         
     7          49 49th Parliament (1987-1992) Conservat… John … 1990-11-27         
     8          49 49th Parliament (1987-1992) Conservat… Marga… 1987-06-11         
     9          49 49th Parliament (1987-1992) Labour     Neil … 1987-06-11         
    10          50 50th Parliament (1992-1997) Conservat… John … 1992-04-09         
    # ℹ 32 more rows
    # ℹ 2 more variables: leader_period_end <date>, n_speeches <int>
…
scaling_docs |>
  select(party_family, leader, election_no, period, leader_period_start, leader_period_end, n_speeches)
```

    # A tibble: 42 × 7
       party_family leader  election_no period leader_period_start leader_period_end
       <chr>        <chr>         <int> <chr>  <date>              <date>           
     1 Conservative Boris …          56 56th … 2019-07-23          2019-12-11       
     2 Conservative Boris …          57 57th … 2019-12-12          2022-09-05       
     3 Conservative David …          53 53rd … 2005-12-06          2010-05-05       
     4 Conservative David …          54 54th … 2010-05-06          2015-05-06       
     5 Conservative David …          55 55th … 2015-05-07          2016-07-11       
     6 Conservative Iain D…          52 52nd … 2001-09-13          2003-11-06       
     7 Conservative John M…          49 49th … 1990-11-27          1992-04-08       
     8 Conservative John M…          50 50th … 1992-04-09          1997-04-30       
     9 Conservative John M…          51 51st … 1997-05-01          1997-06-19       
    10 Conservative Kemi B…          58 58th … 2024-11-02          2025-12-31       
    # ℹ 32 more rows
    # ℹ 1 more variable: n_speeches <int>
…
